module gitlab.com/LevKulikov19/meter-replacement-notice/server

go 1.22.2

require (
	github.com/bytedance/sonic v1.11.3 // indirect
	github.com/chenzhuoyu/base64x v0.0.0-20230717121745-296ad89f973d // indirect
	github.com/chenzhuoyu/iasm v0.9.1 // indirect
	github.com/dgrijalva/jwt-go v3.2.0+incompatible // indirect
	github.com/fsnotify/fsnotify v1.7.0 // indirect
	github.com/gabriel-vasile/mimetype v1.4.3 // indirect
	github.com/gin-contrib/cors v1.7.1 // indirect
	github.com/gin-contrib/sse v0.1.0 // indirect
	github.com/gin-gonic/gin v1.9.1 // indirect
	github.com/go-playground/locales v0.14.1 // indirect
	github.com/go-playground/universal-translator v0.18.1 // indirect
	github.com/go-playground/validator/v10 v10.19.0 // indirect
	github.com/go-telegram-bot-api/telegram-bot-api v4.6.4+incompatible // indirect
	github.com/go-telegram-bot-api/telegram-bot-api/v5 v5.5.1 // indirect
	github.com/goccy/go-json v0.10.2 // indirect
	github.com/hashicorp/hcl v1.0.0 // indirect
	github.com/jmoiron/sqlx v1.3.5 // indirect
	github.com/joho/godotenv v1.5.1 // indirect
	github.com/json-iterator/go v1.1.12 // indirect
	github.com/klauspost/cpuid/v2 v2.2.7 // indirect
	github.com/leodido/go-urn v1.4.0 // indirect
	github.com/lib/pq v1.10.9 // indirect
	github.com/magiconair/properties v1.8.7 // indirect
	github.com/mattn/go-isatty v0.0.20 // indirect
	github.com/mitchellh/mapstructure v1.5.0 // indirect
	github.com/modern-go/concurrent v0.0.0-20180306012644-bacd9c7ef1dd // indirect
	github.com/modern-go/reflect2 v1.0.2 // indirect
	github.com/pelletier/go-toml/v2 v2.2.0 // indirect
	github.com/rs/cors v1.10.1 // indirect
	github.com/sagikazarmark/locafero v0.4.0 // indirect
	github.com/sagikazarmark/slog-shim v0.1.0 // indirect
	github.com/sirupsen/logrus v1.9.3 // indirect
	github.com/sourcegraph/conc v0.3.0 // indirect
	github.com/spf13/afero v1.11.0 // indirect
	github.com/spf13/cast v1.6.0 // indirect
	github.com/spf13/pflag v1.0.5 // indirect
	github.com/spf13/viper v1.18.2 // indirect
	github.com/subosito/gotenv v1.6.0 // indirect
	github.com/technoweenie/multipartstreamer v1.0.1 // indirect
	github.com/twitchyliquid64/golang-asm v0.15.1 // indirect
	github.com/ugorji/go/codec v1.2.12 // indirect
	go.uber.org/atomic v1.9.0 // indirect
	go.uber.org/multierr v1.9.0 // indirect
	golang.org/x/arch v0.7.0 // indirect
	golang.org/x/crypto v0.21.0 // indirect
	golang.org/x/exp v0.0.0-20230905200255-921286631fa9 // indirect
	golang.org/x/net v0.22.0 // indirect
	golang.org/x/sys v0.18.0 // indirect
	golang.org/x/text v0.14.0 // indirect
	google.golang.org/protobuf v1.33.0 // indirect
	gopkg.in/ini.v1 v1.67.0 // indirect
	gopkg.in/yaml.v3 v3.0.1 // indirect
)
